24

105
17
-1
7
-1
7
14
-1
-1
-1

91
-1
59
-1
76
-1
36
-1
109
13

111
-1
123
-1
52
68
-2
55
9
1

85
-1
106
-1
124
-1
89
21
-1
30

96
15
-2
5
20
-3
-2
12
-2
26

78
35
-1
-1
87
-1
101
3
-1
11

43
-1
108
-1
72
-1
67
-1
77
-1

120
2
-2
3
-1
-1
51
-1
24
74

100
-1
59
-1
20
-1
103
-1
8
-1

100
-1
89
-1
85
-1
88
29
3
-3

53
56
-2
50
-1
10
25
-1
-2
-1

15
63
21
14
-4
-1
-1
46
18
8

92
-1
58
23
17
-3
15
14
-4
25

58
-1
89
-1
23
44
-2
37
-1
15

27
-1
87
23
-2
16
-1
-1
102
-1

78
8
-1
-1
46
55
10
-1
-2
-1

116
1
-2
7
-2
2
-1
-1
88
3

7
105
-1
-1
56
57
6
-1
-2
15

14
-1
122
-1
98
-1
84
15
-2
-1

10
-1
17
60
34
-2
58
-3
-1
35

69
45
7
-3
4
2
-4
2
-4
-2

33
-1
63
-1
29
-1
59
-1
53
-1

2
107
-1
-1
21
59
-2
-1
5
-1

92
-1
117
2
2
-2
-2
2
-1
94
