-168 272 -376 152
-912 -72
-400 408 -96 64
64 -832 32 -24 8
-760 -104 112
992
-488 264 -144 72
-664 -112 -160 -8 16
-888 -24 64
992
-64 384 -96 424
-96 32 -824 16
-360 -384 232
992
-592 -72 312
24 -280 -48 616
-456 48 -168 296
-808 -8 -16 96 -32
352 -168 -64 384
-704 -232 40
-720 176 -64 8
992
-792 -40 144
992
