-40 944
992
-40 -40 896
40 -40 896
-40 944
992
992
-40 -40 -40 848
40 -40 -40 848
-40 40 -40 848
-40 -40 896
88 -40 848
40 -40 896
88 -40 848
-40 944
40 -40 896
-40 944
992
992
992
992
992
992
992
272 -64 -72 -80 -88 376
992
992
992
992
-240 -240 -240 248
